-0.362457386914938 0.405876906884152 -0.00147890663349604
-0.0109523038643209 -0.421928044130756 -0.361940089155919
-0.66156108676745 0.208221528019358 0.821606928658937
0.577756019385952 -0.289979702334221 0.307293082955712
-0.669088939501876 -1.15311161467129 0.0684625560858688
0.653969986527027 -1.03007809725775 0.748086912260352
-0.0851103223471816 -0.441961345645889 -0.383418679401122
-0.229411646230701 0.0144747150166396 1.22540324601822
0.377533046939149 -0.258859071549971 0.217366942128981
0.483876036048368 -0.117323548098314 -0.710158884731548
-0.0743713951600797 -0.0140057560092141 -0.984269442208193
0.0390812537324095 -0.617355147763205 0.276642301624009
0.2039759103233 0.596883603860279 0.19621196159446
-0.393703769299094 0.504811787828678 -0.838012872568927
-0.812115934442084 -0.121168385179687 0.714235329060003
0.356630188977093 0.384052676755986 0.246213589504812
-0.310040528711089 1.44400960256495 0.372334036796821
-0.0844742355770774 -0.172943022649151 0.608977394703746
-0.409213711197108 -0.188076738571357 -0.0714565025445023
-0.354787553659089 -0.304376716711946 0.236307737703397
-0.381782359168919 -0.0301045383394269 -0.0365404399078688
-0.123291868515599 -0.171701655292385 0.228574593974529
0.293752296335655 -0.322787405045086 0.441455509349209
0.474186481082738 -0.440406844352708 0.335044100065297
-0.814818888110313 -0.0518871865031879 -0.222992856082025
0.0273832179714435 0.124381769215332 -0.967237443892967
0.366391313264559 0.0781268499820319 -0.848149600284584
-0.121121659292407 0.529983333563994 1.26605703580915
-0.151148861154629 -0.365377127868959 0.168302883173112
0.328989606567066 0.022812080076559 -0.0738445083612204
0.301691299656262 -0.155339791089174 -0.182642891659626
0.0711287883960528 -0.226322669044452 -0.288724856359311
-0.449329864998308 1.30946437579275 0.502975016225001
-0.0261658799125959 -0.211220668815257 -0.135103464306526
-0.186085923553465 -0.0343527644032337 -0.257167696579044
-0.179831652703668 0.164981721526977 -0.16355774437761
-0.67179990586351 0.169214717367032 0.0569150671593778
-0.218994179771027 -0.55824881083356 0.348746393398454
-0.495281336572943 0.909214194619321 -0.0468065464794278
0.466046596893624 0.435614790073269 -0.643814884025658
0.293101660734866 0.465567737753726 0.259759873784614
-0.0952703602905061 -0.950611492556773 0.318841283976129
0.212045539609833 0.0669895864779562 -0.397657353291862
0.261863931695908 0.706644940924233 0.210979207622688
-0.477315790342026 -1.16015963344523 0.111819285550279
0.605142673965984 0.797513478769038 0.15234484320495
-0.244192317151801 -0.686765065811524 -0.414669596301403
0.244307420013273 -0.0237332535009567 -0.839886729247195
0.444256663700567 -0.104300590425318 -0.449260898368494
0.744545303824663 0.638875718047661 0.377571700252878
0.448702113198395 0.184151656216826 -0.318046820464394
0.662932419784114 -0.4328507864982 -0.251302461803574
-0.704375097255268 0.442492010513409 0.198023646212173
0.33997519192532 -0.118552345645308 -0.192330662961914
-0.555627312296961 -0.415432312479679 -0.242822791236681
0.19015277437201 -1.12597042673528 0.070956837517402
-0.240462570145275 -0.140563457077249 -0.779834102510136
0.279790799358908 0.178466153406936 0.286538808991682
0.586954012674403 0.000544607335194321 -0.0863638266505608
-0.158669095820357 0.445321031128117 -0.292820089873132
-0.546395049266255 0.505625309882743 -0.435243532234302
0.629756558530683 -0.343576524420689 -0.0235756065479344
0.177007381993043 1.26964804482986 -0.338547705438841
-0.347735053839753 0.0892736574463243 0.229619152050681
-0.429875522268101 0.0165699547440803 -0.736228130873768
0.243404363631348 -0.172774004209141 0.260492023751202
0.376529752661699 0.710147672945871 0.0476047786054046
0.292246797271495 0.00704152185459459 0.269926814178034
-0.0937469954899867 -0.20390414798627 0.931157093005109
0.772876604405474 -0.429005793375757 -0.772438531270579
-0.342599965967694 -0.957513642692032 -0.113137862724184
0.435014499663924 0.496509821531911 0.735731733669883
0.0647006258462114 -0.141085780939308 1.09324600210971
-0.320439254080051 -0.343957440085077 -0.000467563036518584
0.91940454477761 -0.234197001960569 0.297198606884285
0.0320905183800559 -0.281340139295498 0.617991102941175
-1.07926065610041 0.348855287095867 0.184028454930148
0.143898758860927 0.278126737830531 0.753809677068834
-0.000493696770275959 -0.122241593888863 0.0716218073600251
-0.638715476377049 -0.0614475525990219 -0.674198275473145
0.417174604091473 1.31233782903616 0.135253939519065
0.580129213409567 0.29996444358378 0.373147124092734
-0.284050677011788 0.664036416419235 -0.611630018965411
0.545574284015322 0.0123637718286609 0.119306642421662
0.585030902007011 -0.108176669361488 -0.0149142398835098
0.079524217441543 0.483904845977383 0.111651337796733
0.0282275461562464 0.625866064838889 -0.704249687964349
0.235378081722887 0.10042026326346 -0.319916533914997
0.31931961021312 0.285505014976857 0.204855730554113
-0.609374470337489 0.528598723012061 -0.481046494184602
-0.332136951141362 0.237039900377186 -0.635320555946625
-0.825784260632112 0.309863001274984 0.258177990263957
-0.185249243714426 0.202638081681759 -0.0297722350878014
0.402154546859952 0.423002345583656 -0.11153310569925
0.362444514874123 -0.014633509926042 -0.0360368275036804
1.31647227573652 0.344571163394543 0.583837670067417
-0.0932115026840866 -0.139316824136793 0.0324815184734315
-1.22990906268078 -0.339173394325449 0.263104788867588
0.589244895402914 -0.0303158294319451 -0.0229635449311842
0.0442783171709483 -0.780000732243324 -0.187575147510857
0.0843441615025289 0.267070373651933 0.189435670329775
0.144986230239377 -0.0643903999838312 -0.148626860663774
-0.568963002416783 -0.420951377684853 0.655194441053574
0.20817183515897 -0.0320603003728132 -0.597659005730607
0.305770152372029 -0.126834733259771 0.0514222068768678
-0.716241127768945 -0.0639206281102642 0.567583784828689
-0.0232147739140832 -0.0615705811871948 0.1070504208518
-0.286087610291578 -0.492130338121665 -0.447611060692249
0.667349219446718 0.0929551697761771 0.408994324533309
-0.276348941706301 1.398731441231 -0.0650199900948212
-0.0711553083799959 1.48585504828083 -0.253342756558438
-0.721305680513198 0.201044567761642 -0.131824431129947
0.74383585229361 0.33632691089053 -0.209054841915174
-0.77298667040116 -0.378666384209194 -0.088196880039036
-0.0247447628041622 -0.0561193505086313 0.759433546409099
0.152689229755483 0.658404149674666 -0.413585185254202
0.778280542220067 -0.0290277572783437 0.110934032396864
-0.496134823305228 -0.344733719466228 0.278361052633385
-0.0900963469913581 0.371138354705122 0.899178637664964
-0.318325884025856 -0.00347620894833953 -0.155518292310174
-0.902304321915404 -0.36302872537031 0.0441469329806371
0.418244649523696 1.58323950610534 0.666658746383345
1.09224883535946 0.0917245764574025 -0.140281859528622
0.861836821546788 -0.425349193538676 0.361040570175962
0.889744561444026 -0.307612800313635 0.0120818502057294
0.82569232619172 0.0118968594024853 0.0860022323087603
0.139445076824081 -0.262972233440924 -0.352570963149983
0.101277787428437 0.157460227290723 -0.0754716926617846
0.0628402533965408 0.759230283710422 -0.241913229267811
-0.197176398109663 0.500923516686107 -0.171063756162205
0.24036910400717 -0.256918121014269 -0.833408027098265
-0.749608739989668 0.50881968344002 -0.000540888285526103
0.541391978585721 -0.0396838394947801 -0.515762679594277
0.218597032192608 0.090772304862249 -0.108289566713495
-0.497010489828213 -0.498594749936505 0.608469209002736
0.701791002705557 1.28624127013075 0.567378482881765
0.346079801601939 0.142012285099464 0.0693842591647076
-0.301938762441614 -0.0692838452890564 0.894960180813744
-0.526216762226584 -0.123598671122073 0.048049071323191
0.261337204278285 0.328188628799688 -1.09676793642544
-0.295719811657018 0.715958014366622 0.19528975425175
1.35407944400782 -0.00718734974695423 0.178406778133098
0.0141335651003087 -0.735776115127488 -0.512944785049171
0.0969447882766236 0.381654206016319 -0.21196505226284
0.303182766842606 -0.167179858075785 0.221358361198963
0.000149965355317711 0.220202341536491 0.0750757003778619
0.0711816376883276 -1.05279818500717 -0.680573514316416
0.773796224443755 0.176208321299863 -0.207656291599494
-0.62479985251315 0.231854298088967 0.105803096840863
0.06304692290981 0.0602073728154861 -0.549903861160978
0.302257219285752 -0.0139258718783334 0.0394426061595565
0.249106146384566 -1.13549849110691 0.193239616229068
-0.23218798602158 -0.232905386506996 0.20429517203564
-0.0193710867023428 -0.475952861838628 1.27422079766165
0.194433609056749 -0.00595643743533353 0.111309220902133
0.221124896361467 0.286747203993482 -0.71841897866457
-0.138842131765001 0.802584174308496 0.214799339213013
0.23342848722984 -0.341031514533844 -0.218550803951366
0.293511115644214 0.0953369759598725 0.142664690834455
0.594846142975408 -0.383562919144512 0.038426395680428
0.0252912930990597 0.210822448214433 0.195156737921906
0.319007667962709 -0.392857914595173 -0.0718616570789078
0.281199131063638 -0.0810994454150949 0.176404015323568
0.394630830432256 -0.374892022078698 -0.109545690791276
-0.0406874047425108 0.0247170846398141 0.272391408365924
-0.0935671855266153 0.212465749423495 0.719435486222101
-0.140342688924053 -0.141360174314751 -0.227260498918524
-0.0720861761393204 0.0498452471829092 -1.36677454097201
-0.265135080924891 -0.929445178379541 -0.0971358576090293
0.451594988199958 -0.54954677549597 -0.122659016042606
-0.669585054597018 -0.514496010891138 0.112405558897844
-0.503931250528241 0.254523768253336 -0.535312793036055
0.40980185104361 -0.174105408900713 -0.754062344178722
-0.251148094512541 -0.306730125349808 -0.0256493148661959
0.484101093107826 0.0264393866108358 0.132598205897397
-0.196526518505932 -0.130174776182999 0.0567213302600439
-0.400508019887668 0.0331975147935274 -0.279012908526885
-0.417531552537775 -0.0998672013335439 -1.67598606755471
0.243397467663562 -0.20695025496969 -0.346928962332061
-0.134228753249894 -0.0233054787623187 0.375880156901168
-0.365245649846444 -0.527695907198135 0.455814929372738
0.45002993097612 -0.114962116942573 -0.503265310714113
-0.152987395388311 0.286968993063038 0.083607774855315
-0.115554329890259 0.16111210191268 -0.68314051041588
-0.653196378058561 0.489347637150229 -0.147508248334222
0.0335040276602085 0.129354487438363 0.505484225477314
-0.525951721159132 0.131701247970631 0.0690355951514495
-0.031464705283458 -0.176728841616884 0.313742311652046
0.123084864893446 0.419949043786469 0.166586451674523
-0.0914054022547333 0.144803482785333 -0.198172588255812
-0.740768198409584 0.848025680181312 0.537406395084044
0.29991347232082 0.25120893433246 0.0888297325766932
0.00305213881869876 -0.868449917868073 -0.13135691677015
0.198422198549247 -0.212555859963273 -0.247643322079034
0.323190572410868 0.167099615366726 0.0766833118023154
-0.967939022163616 -0.0503507526951857 0.800581186995213
-0.477345611872698 0.865706327303527 -0.132529993322653
-0.646628526568471 1.12747012252748 -0.537445668911221
-0.230734964716641 0.594562445774431 -0.269780522262147
-0.025813116192812 0.57503745779703 -0.321641624863214
-0.19104189177037 0.491613194903238 -0.23709319738079
0.37400359512726 0.29616737408996 -0.046417031900367
-0.0542739801537196 0.257077288623318 -0.510140882134204
-0.0507789985927152 -0.0455800205271457 0.0847735715486275
0.264706006050223 -0.0203089830427633 -0.106581245361581
-0.434534583238525 0.0252635638143862 0.960420902215813
-0.161152963286076 1.36086413647628 0.107220881531868
0.51037333689983 -0.53217973250819 -0.0198679255979577
-0.506410446280267 -0.177277743313222 0.401173042948913
1.06696918978261 -0.463603927496572 -0.275879608523802
0.168224836319922 -1.67511598559327 0.173185285385822
-0.0764415266923658 -0.153532364437642 0.472335865913632
-0.401882950776256 -0.55280242714274 0.00864964521087302
-0.165842090655666 0.171419386914512 0.0777919554623455
0.231051742078705 -0.017169938993941 -0.00350902752557425
0.553487010999356 0.18450150178319 -0.548582239336316
-0.123952055069862 -0.41375069809959 0.326468647154057
-0.0290300731016756 0.00166398786277807 0.524819742491787
0.195406032763661 -0.543328678919662 -0.485683960400534
-0.487316594319567 -0.668682089506973 0.284352064952134
0.18978140975901 0.477845501391931 0.0988724995445658
-0.879986207710529 0.33467739847488 -0.18460402595892
-0.192385301317153 0.133469917521988 -0.825736265527498
-0.155127647219134 -0.0749945309564783 -0.183142627852187
0.166898048108668 0.0659028298588219 0.177825709919135
-0.0238267914589294 0.281677232432381 -0.339337170872256
-0.0356403627748973 -1.13148335649397 0.0992694059394374
1.0235664435518 -0.310049887547496 -0.995110568052651
-0.189598125303949 0.330370243035853 0.210919371957496
-0.685452381457473 -0.108423628865578 -0.11727719244263
-0.0252122220477832 -0.105065631708896 -0.047328832594891
0.442761082692654 0.181894125163722 -0.279380473184043
0.175212253571449 0.00149675321398478 -0.176958543032818
0.0178693970766551 0.117925226299476 0.311281931900276
0.116755191901309 -0.217380624261841 0.827746102151648
-0.28840497853293 -0.644989916762692 0.103612463033762
0.0181068927337605 -0.384832685939904 -0.297632578329562
-0.287958757936455 0.195267259947148 0.337058106160625
-0.549514864715817 0.0471566309632249 0.346157829521665
0.0382586826974424 -1.18913979126897 0.131559596665668
0.137130567629686 -0.696159552249855 0.3238649109634
0.425271232350321 -0.57866272816206 -0.194709906667815
-0.931493043767716 -0.137747314079914 0.286032214202521
-0.159625990663028 -0.191530075880165 0.162099699281344
0.129083135330522 -1.32605341809605 0.149254104761085
-0.957524942183198 -0.488191259795194 0.204628936584092
0.504009665695348 -0.0301945474031591 -0.0894779525668458
-0.524097298654643 -0.38468004917686 -0.470283380020879
-1.077525882526 0.00934323163554707 0.181715631266284
-0.449781228312589 -0.321643776936987 0.256803215429365
