0.172567693160844 0.214622116757117 0.0994480297915174 0.181544076082682 0.792529097836666 -0.0546024909603539 0.100891500970742 -0.0802513224785454 0.116136611668195
0.745885390686091 -0.0317149056476352 -0.0348641200620143 0.0179411596529058 0.52379876874285 0.205183871758975 -0.0641987834870306 0.180154332067166 0.346914960783161
0.728567315956934 -0.263068102519091 -0.0809023476234176 -0.249424278338812 0.101860427386086 0.225230244118697 0.0839207193964992 0.242195719856788 1.94074391793956
0.256771547407622 -0.0827275441325268 -0.0043354543991429 -0.129747519849279 1.10088307115314 -0.0310889385800903 -0.273888689685862 -0.291471256678235 1.23035233583
1.76022319996539 -0.250505715963208 0.0187833308742941 -0.262663915453934 2.4236458238903 -0.095884463098335 -0.0496391522011933 -0.0244024620900578 0.539583972303212
1.36002343132786 0.352135323169217 0.00287271951241208 0.269047728436521 1.90668869170721 -0.00849814898432679 -0.0957689122463238 0.0383666649149607 1.19596069382315
0.337558566991837 -0.0868410211016588 0.063968110290487 -0.0856117696564249 -0.533817353570863 -0.0343207145847595 -0.0275952931273888 -0.0504781997589261 2.51333247197131
0.309023589905003 0.058497739708128 -0.0613854718625269 0.0806764764810814 -0.19194900588686 -0.149190492016884 -0.12084186350322 -0.171010257661658 2.13878415086496
0.314845229632676 0.0755527745429591 -0.269287487332182 0.161711194478844 0.470978785160168 0.178578902555498 -0.144094785732519 0.12711235620479 0.0201359283744555
0.233267760579747 0.0619771983533107 0.133945308218798 0.0740687852500988 1.09621424885042 -0.183158191023732 0.218754777068829 -0.0501930122276752 0.713723437527883
0.242480793757293 -0.00628677949459622 0.0311784813333147 0.00949521462645896 0.616189505589955 -0.00907596867887166 -0.0315834627946112 -0.0246799590289543 1.63329645512999
1.46396580283098 -0.0947443316408517 0.0132894249430872 -0.130380875135676 2.29988611187647 0.00796606172559823 0.138730200551737 -0.0159254010540942 1.20729500931778
0.949627656161758 0.228914400637252 -0.0314629243294274 0.174030675980037 0.969468357178121 0.0341311014363904 -0.0851547801494077 -0.0559443737688112 2.07700308242056
1.04139444356938 0.284026784036206 -0.200913391075435 0.295209540246919 0.715961865600553 0.148987786617673 -0.221198613322293 0.177652954816057 0.671951529309015
1.4070330781995 0.36606477093623 0.37037886411912 0.342042844290892 0.52159881893252 -0.0373313381854184 0.489753050825587 0.100187572344441 0.83586366128453
1.31496834591227 0.0276391305503475 0.0662796053635396 -0.029274002691953 1.89007222517898 -0.056139406346809 0.0585520170662286 -0.0567459172119202 1.14976717908619
0.925173012488671 0.417629757760744 0.274864059861606 0.295255084221057 2.27368593826594 -0.256965487159584 0.221518425680331 -0.348085313994157 0.890492792664585
1.25967448212349 -0.318621378989289 -0.242440586821757 -0.186497797354755 0.356396303665033 0.0241478032182525 0.0622981212627216 0.0433765540732065 1.91016670545
0.601011970192311 0.104643422542139 0.00692379388363728 0.0954022412578109 0.0354105714557795 -0.0938731770122161 -0.0279429192058888 0.0429103545263644 1.19106319408359
1.03285733060584 -0.18640721162345 0.0274565499942795 -0.15411988953444 1.39280385000676 0.14539259450666 0.0217567562780543 0.120997578962478 0.972483021597181
1.91808438356217 0.0196552955438404 -0.0612071811542949 -0.0324713857190763 1.24423212235576 -0.141885467363703 -0.0107681336806105 -0.0332363642764773 0.218805945341221
0.635448330540479 -0.110377016080714 -0.0246281758337517 -0.0890847459741168 0.465444163401226 0.0678665489209442 0.0676144900367756 0.0195883518290338 1.25682614270776
1.7603186168179 0.047673123010936 0.212547766809821 0.108710082470235 0.8124186004547 -0.155724955879786 0.0959704053593116 -0.171961033456113 1.22240663622857
1.15218053922363 -0.118718262642749 0.133226319100148 -0.0861972643891789 0.790256250639994 0.100367586490307 0.276587068974578 0.0840652170160048 2.11344631914856
1.01906267269489 0.120523589759918 -0.509744377951326 0.0993112566440111 0.849692576558534 0.0446686569510624 -0.444914477880013 0.0033838685898246 1.25122582037731
-0.00346297060155076 0.121829216635421 0.0620232129973539 0.111928868937916 1.09492917626948 0.193574003765087 0.024226468814028 0.0762125746482584 1.25866470761087
1.27201379543931 -0.0243303259851135 0.0228399712896461 -0.133610442549061 0.770794841899246 -0.0041459587108214 0.073901078741314 0.127379761178297 2.31340479550486
0.576060769888546 0.331546579869953 -0.103982044622182 0.177827628813967 0.825057344061966 0.0773628862713178 -0.0220312207375889 0.0622312414715157 2.38827827892727
1.21564907866018 -0.163657695949156 -0.0652775004711319 -0.119577727441463 0.391457465807944 0.0533090241871338 -0.0498899549579822 0.0204590059403706 0.0286045061618158
1.52556552683398 0.0566242584379262 -0.0622791886742624 0.0167411969327569 1.59009348251539 0.0201796007145275 -0.0476632676298208 0.0768376525705575 0.437503081531991
1.14474534310699 0.0173801648855624 -0.0155159932484174 0.138439745825375 0.210707397915625 0.0995243414520372 0.00568944500989546 0.126168440217461 1.35476092160347
0.824202088013237 0.110854791581526 0.0707928141978694 0.0877255772104058 1.80136623908521 0.130521096027265 0.0302375185940928 0.117588857174738 2.03702214129698
1.33945326991618 0.326032307934605 0.128896413650312 0.380866881770077 2.53404892896672 -0.253804836685058 0.107535105028472 -0.222449796701208 0.802033586516882
1.21394121970998 0.0159500211704918 0.0469735193342185 -0.0877251345987295 0.410601351376178 -0.153657306609096 0.0147984419268544 -0.162141834523175 1.72587960456122
0.368689797887051 -0.073209840595935 0.126029125208261 -0.0707445650698118 0.102441561134105 -0.0979185103927558 0.202125015584272 -0.150877028716896 1.07527793618295
1.00584599048115 0.0605037521653385 0.0230505042085871 -0.0136844660452382 1.41356401723477 0.0515890599126689 -0.00556126347653341 0.0558547599134259 1.01781157428398
1.71437990458095 -0.0423326249832734 -0.0562646726258497 -0.0555759041457841 1.44121530241239 0.144540317650539 0.0197183928736142 0.0953067537873365 0.646447593424656
0.666987360317993 0.223728901948198 -0.0302360823469215 0.213850638412005 0.860473126727044 0.326010013988806 0.0265824510384737 0.264610555431685 1.41733343913224
0.692004580671937 -0.157937608861767 0.0435401295122136 -0.118723982389812 1.95049367703423 0.0380478156668222 0.049038428566964 -0.105078050754526 0.735024564469167
0.13175313854387 0.026332058598647 0.289862495213179 0.0766200576774945 1.24298881581794 -0.0251062171094019 0.365503740016162 0.00647802679905625 1.94992383392541
1.7075495642185 -0.127137553031921 -0.136131612207646 -0.0244460703197041 2.03357622663988 -0.126458224802683 -0.126301105246477 -0.0744718401904997 0.824174922329586
1.35182878326531 0.215812935012534 -0.075083310074084 0.33853200836788 2.37268138969997 0.462586388346038 -0.326203399766352 0.345578872627496 1.40285987804093
1.80855142258019 -0.0507339404022359 -0.0159782852939554 -0.189904750803927 1.28899866502639 0.0065674540556916 0.0252957114982318 -0.0409948667168533 1.72071865190973
0.870859706114005 0.00691765779098336 -0.178592808589494 -0.0211462574007812 1.54286537893662 0.0674132936753456 -0.18672739299964 0.12124790809259 1.17139057151324
1.18046881951613 -0.233604716584768 0.0463215856910755 -0.257601798959401 3.15248761550479 -0.0464625652173988 0.0649960841168593 -0.0636802899304282 0.942474386370016
1.6741904561117 -0.0441671689013693 -0.0885762977945288 0.0405730772821632 3.53739660277441 -0.331959566449864 -0.154352662601513 -0.291187279143906 0.980782337107176
0.89236114211592 0.140727396164431 0.0515452091640877 0.126577096203608 2.9095758904812 -0.305914260878823 -0.0119434564990409 -0.215581299836253 1.93110547293659
1.69450542585274 -0.11330034600573 0.369652387713176 -0.140806025738453 1.64048913127912 0.346903195281595 0.366839574836935 0.153202127835499 2.82973754054886
0.308257908999525 -0.215705431237863 -0.044320727068392 -0.149857735816808 1.78347371702293 -0.203730258898595 -0.0414233131678183 -0.0586826554701568 1.38485421937067
1.55451196882106 -0.0840415214157441 0.158873058420683 -0.209984019169453 1.42509507569915 -0.101630479589718 0.185586649168389 -0.0553961895588551 0.592327726889857
1.37259981473138 -0.0129427486788658 0.27749949469205 0.0424376383991664 0.582895454449671 -0.0634749002541674 0.229623398105434 -0.0189208784394768 0.595006301016066
1.07531279965543 -0.0872655828364147 -0.0542230895499301 -0.0717038730794608 0.861475413067111 -0.106378372901164 -0.160922010537286 -0.0375246873686955 1.09471259061688
1.35188636136936 0.136864711236124 0.0341959434988645 0.147595617956909 0.754901753294703 0.0607486183436757 -0.0153000643888885 -0.0418977673444539 0.893697107562847
0.41357251690708 0.0265254924423111 0.156734135892938 0.00304046571034718 -0.101016288578507 0.0885752972240816 0.202300478904001 0.11624630433427 0.400673703084953
2.11323684817503 -0.152318985136833 -0.0310019658760689 -0.0394457866851791 1.06201503971385 0.130020863750386 -0.0387913556827944 0.0438227991343981 0.522722109823818
0.332143390749695 0.0917931578714866 0.203975697755692 0.109749887561389 1.77808368187719 -0.0803868559228453 0.157114256649299 -0.101366623797797 1.10143409394451
1.45038103390859 0.0648583968669603 -0.0423979536941269 0.0879480259962536 0.591330260514661 -0.0319842323739471 0.00483520617647296 -0.0315522900492224 1.37411939175611
0.318893280224133 -0.147028933935702 -0.034272458554752 -0.191396119610862 0.314607871218758 -0.0457767852768235 -0.0300389203801423 -0.0274014685476646 0.996462867901394
1.54482734912641 0.0219413852296531 0.0754272631178072 0.116951076285472 0.674453773351013 0.0906432073488487 0.00036378161125046 0.071407063944859 -0.410278542966685
1.04043525852738 0.0155173452730089 -0.155588097336145 -0.00756482822593255 0.794237090805711 0.115038918506051 -0.160149659211488 0.161941023069845 0.818271743676641
2.40723157341264 -0.142753043461892 0.0759939685898421 0.00755544401903107 1.44636140240786 0.195025178770274 0.0812452764535314 0.157327323442945 1.06568100963567
2.06714718156287 0.132538504382639 0.325739371810942 0.136078803432059 1.15632452424628 -0.0653423338813631 0.31958875617957 -0.0409584116264997 0.523037523582959
0.568062274827909 0.0410666335301496 -0.0502351398940319 0.171429490001363 2.75222119558722 -0.286667679534024 -0.0659899597023337 -0.209803172838656 0.622040104885154
1.0622564131506 0.0623959745693421 0.139088065326559 0.000846127441524673 1.04843438181418 0.208383412041128 0.146041406963817 0.161247620771958 1.2727693966774
0.351117651850686 -0.0941131947223523 -0.119284373125543 -0.103849476580467 0.883332652515837 0.0407910732578463 -0.0770548533237846 0.0819203103536665 2.11069066996629
1.80323846215039 -0.031678833051258 -0.126936037985611 0.0329145114245544 0.864193727744815 0.083574170089971 -0.183056337342322 0.109182235693275 1.4584490991091
2.20092839149045 0.251579081601861 0.0942171660275023 -0.0377579970020831 1.04855628444852 0.0366947522812901 0.055262245893825 -0.00742510828573475 0.862982215434391
1.12725746374537 0.00475674057005138 -0.167441497376657 0.0793102140922901 1.09389723564938 -0.091735250868822 -0.195719491591251 -0.0531668961872587 1.00345968154952
-0.1065197915501 -0.0329627543790922 -0.0388256982869717 -0.038974248517183 0.581619253003239 -0.0687173756818691 -0.0299343504065806 0.0177213928580442 1.93490916197545
2.58764766693917 0.0587273250868614 0.297948571762514 -0.0130171132685838 1.68532451195376 0.111369757002752 0.167933867704097 0.0836534497390488 1.78659353649158
1.40804272428275 -0.228250120192469 -0.04339867136908 -0.071478989498938 2.4947180083588 -0.00735543193982487 0.00724241555552806 -0.0830424909901727 0.44325294522743
1.92207286873765 0.115804940477132 -0.126831124056889 -0.011295743613917 1.37335202610349 -0.218439570351285 -0.123795504165461 -0.0716209289988574 1.92184633601277
0.198612762953312 -0.177116833773619 -0.0134640990380558 -0.14076625541766 1.09562682226154 0.112484924424506 0.023501470125747 0.0221349940534183 1.48499192688212
1.03392048017577 0.00864271238206092 0.0817378275666741 0.00559908955314614 0.70097421344274 -0.129660094234962 -0.0407225876783423 -0.127772350823739 0.997590238699355
1.74810473398613 -0.0556492113945543 -0.23170337148285 -0.0100743220200663 2.19819028129138 -0.131720902175862 -0.132249025745092 -0.130830548985722 0.0512073814985057
0.504738419333653 0.0360071574071451 -0.0633205346709257 0.11216262789195 0.760332307355536 0.163001056629432 -0.0294118096305664 0.236353750616377 1.16442141722492
0.719592573524987 -0.018472428975994 0.107610953844231 0.104786324684917 0.7656081375432 -0.17309090177868 0.212527753495447 -0.146685629259548 1.03141186999511
0.413668905697532 0.0784213113989466 -0.0328412461328089 0.0424044457076163 0.562078714445114 -0.277352704790772 -0.0869136967108289 -0.250560591424711 1.10164420268371
-0.310290169540846 0.13601544133223 0.201072895808264 0.201006044501884 0.0435484492934054 0.0304678229654051 0.239888793272625 0.0637847710272912 0.214064037729701
1.97639936768147 -0.0360089063127038 -0.0987465116300254 -0.0640030536399032 0.679296931388802 0.0566052375889551 -0.161587553653891 -0.0186205299161132 0.9725921551357
-0.226959871120591 -0.377492060900014 -0.055603196731505 -0.413872032728341 2.14899661718944 -0.171010283538297 -0.0673808075921518 -0.0857035975379222 1.25397696846869
0.888330135438537 0.0289036169876714 -0.0499472078533746 0.0724720736730327 0.245217791357685 -0.1959359013135 -0.191641059020472 -0.228976501969655 0.78210276930718
0.485127825061571 0.202589006564609 0.0929945085549856 0.177016783293179 1.28695952096588 0.0848084822329283 0.103192474654635 0.111709040547835 1.14265873554671
1.33669127679756 -0.0577870568127651 -0.0409246344509107 -0.0372212975965982 0.269388589534622 -0.128788730595448 -0.0263938001136848 -0.115214329037331 0.113167181261564
0.291159759835527 -0.105309165869724 0.0694018660373503 -0.136489982169182 0.858302241535488 -0.0407069606550329 0.156045617457945 -0.103580774463845 0.295387388146781
1.28098925141942 0.142070060121065 -0.0317643183809461 0.066225378369158 1.14393258862941 -0.160896497788878 -0.0435661412589185 -0.233822699841815 0.788696446060504
1.24824022648755 0.0300784764377186 -0.0232804774936786 0.0543181546418854 0.551246716796568 0.415351712460338 0.0554655522999692 0.411068362423804 1.26885274347102
1.41418380570186 0.0847425035212769 0.0519102488578598 0.0463515118126815 0.902659634399457 0.0969788993845447 0.0726426889358021 0.166427395663921 1.26676824974893
0.208794803981324 -0.0271958338029479 -0.380631779152929 0.0622092937720224 1.81663068845651 -0.137517030433439 -0.502668336038578 -0.388706003556524 1.68903676734403
1.18008237842087 0.0658637624341484 0.109474983277678 0.0890229701854898 1.29916316378278 0.138522762116983 0.0144067913595596 0.309524919700998 0.49100360456383
1.1774009783038 0.0247915056862273 0.0161769451855274 -0.043576642420501 1.21436009341208 0.0124327124755804 0.0620745260963652 0.0542259871760412 1.02391266426712
1.38235458756869 0.0427337608360498 0.00139188245008267 0.0816984663942807 1.27931095074611 0.177112898525885 0.0512892104246057 0.0998262421410459 1.36746658144853
1.14020050029011 0.148658213995293 -0.207010556620065 0.0736079339876479 0.0445692302682796 0.116282782049968 -0.225376058797309 0.124078458557402 0.61821986491019
1.30452179003123 -0.14073518352356 -0.0362356092578438 -0.165961010508413 0.889652786804178 -0.076390310699925 0.0652774066541974 -0.12687933351668 0.907906330850519
1.61566462529464 -0.0107153591779353 -0.0384527777270041 0.100524681098579 1.83065616485344 0.00561598940171435 0.0502313661965252 0.102415856654205 0.166105532746327
2.73836026539051 0.0503749401838993 -0.249115160115956 -0.0705861632578665 1.13756031666845 -0.154445167383526 -0.289283836373351 -0.0767777074026469 0.685481315860087
1.44213874380857 -0.0533669216363719 0.0884335865774866 -0.0535402274842063 -0.0596377776597086 -0.173590756667527 0.0110396820890628 -0.176960583922216 1.24009641972264
2.16354760208452 -0.0619403771910717 0.0190025362996599 -0.0839867023834209 1.11895336572349 0.147473439340768 0.0527278285867501 0.1101605809771 0.91484876596616
0.0545692091706651 0.151433549725488 0.0380600432323138 0.115986995386939 0.320185791472923 0.19282642165649 0.0251629651401655 0.211135168324452 -0.259466706703393
0.623378250136712 -0.0133903613029922 -0.101964911525136 -0.018567267415273 1.42128875739817 0.035206261574215 -0.065881676553561 0.0609687830346173 0.0293856726312016
1.8517005335184 0.0281062677631336 -0.0897737333352984 0.0484678125728468 0.564306588760258 -0.0692252560677752 0.0175598557123211 -0.107169472325714 1.17251858756689
1.2616342531 0.13741839308624 0.0299890690605515 -0.00164699027811975 -0.0408335010151948 0.21479000136613 0.00644483712683527 0.170922152908357 0.0385881146276684
0.457708608501694 -0.0112496084524715 -0.0361124521059771 0.0985988673402912 0.460349660976857 0.200691175835748 0.0313175012361182 0.319295910183195 1.14080532323512
0.806013513857498 0.126928974918861 -0.0375873362422887 0.08403701448811 0.0519936084751442 0.054574096543023 0.00946390879297315 -0.0537067902575207 1.33888907475532
0.414408648650862 0.0419494911277858 0.212613628766302 0.0910441735945318 0.892105531553971 -0.138273852367662 0.277027152634586 -0.0494409223831828 1.02590034266786
1.24007262458679 0.00433978194091296 0.107568783246232 -0.114874571009061 0.737346796276755 -0.156540340923103 -0.100344023371614 -0.0312007562481102 0.778543257310678
0.279811622005534 0.00970151332951694 -0.00483229067655028 0.0524836383872898 0.0244338298915888 0.273901323530402 0.0974443811620785 0.21167300218576 0.68761478190582
0.280556979668343 -0.00836177427324305 0.0852538440661169 -0.0368117449852123 -0.391570692473255 0.180016421927626 -0.00999856979888641 0.227861918212563 2.46279917949933
1.27664954059543 -0.00742986920792102 -0.117133271500841 0.137933771465289 0.416617566174347 0.150243551253456 -0.104071943557503 0.134094899388403 0.567466500421436
0.517997896973748 0.250321878851967 -0.145040247637732 0.0942670420080809 2.2720099610606 -0.012043099251757 -0.0316224885280898 -0.0287673523965724 0.434694319721106
0.0234151921200379 0.19758338589315 0.215408764118707 0.140673044841761 2.05729285481308 0.211636441893599 0.174572485672181 0.223619732131069 1.07903934144943
2.75005695059673 -0.142642659552213 -0.0104118615920696 -0.173880671025714 0.772066507521018 -0.067916620080938 -0.0856413410160039 -0.0963768174478205 0.55014605497664
1.02478732093349 -0.260003550720876 -0.0558572370247405 -0.358531974302717 0.287477421518212 0.078991564234373 -0.049000366171213 0.0685809363834727 1.17485699913331
0.547769436644415 -0.169797514442206 0.0275262785198437 -0.10861651193673 0.658434217280287 0.0236397070967864 0.110117293527457 0.117665738572751 0.00777033117843268
-0.204599299092809 0.0531869958190993 0.042592786213937 0.18613094841644 2.39489856068622 -0.00463383173442295 -0.0402983894939472 -0.178090842864227 1.05429987880221
0.434225412170745 -0.0644143798117504 -0.00682407427165079 0.0334918236214923 2.04830131735212 0.0234273010576047 0.000478471469850673 -0.00108980659883672 0.530281320693862
2.4569704633389 0.0358320049644372 -0.201832316289494 0.0828716910343876 0.674649726013982 0.0191992939926854 -0.138901731474197 0.0378805078509381 1.42035588561304
0.323337446263096 0.0410156278106713 -0.118826790470465 0.0584774987518915 1.41034802469978 0.0669910215557731 -0.0867287995489194 0.163259384261326 0.816372472432544
1.43624085485112 -0.0218645616058888 0.0389310233876613 0.0430514621323108 1.01751895419585 -0.0376818717449003 -0.0235384970136863 -0.126117934615343 1.28926741295343
1.43410738397085 -0.00315239742825964 -0.120615089404574 -0.039694487578358 1.38361532333585 -0.00223896860617423 -0.168381210037834 -0.0811689528298115 1.65183755202262
2.17784838855504 -0.161886750810542 0.0140675586487358 -0.246778555195165 1.06424980833117 0.231828438730296 0.0102240072954073 0.144979584063678 1.11166364163249
1.1595484099982 -0.167044149412618 -0.14385623543756 -0.131544659163567 1.67213684540258 -0.0725255907534025 -0.133855875425073 0.0979653731920091 1.38339403451016
1.71246326525926 -0.0357754167526888 0.0493525951049198 -0.103733890677087 0.34168168695746 -0.187034077949041 0.0215080612260649 -0.232859364331672 0.217349657358444
0.769487627098558 0.00717052609650591 -0.184977834213684 -0.0654731148895157 -0.0276549919281808 -0.0399787247461109 -0.234153234578544 0.0012597386542932 0.210850216243094
1.98914951905483 0.07277320425853 0.218053775936189 0.132915609837848 1.42076179821743 -0.124171208878162 0.171834668863952 -0.112844582426368 2.06895230062104
1.41588769397404 -0.121115880472109 -0.0172894209930091 -0.193114037000251 -0.177470024306908 0.0163658680657488 -0.0676706403823943 0.0594473706032828 -0.185687130913685
0.360726119713283 -0.00179560128225984 0.0177998646532162 -0.0775602046220571 0.17106529603439 -0.00220515684101811 0.109937277633262 0.0149143584571993 -0.0931031728287047
0.0522610980340517 -0.143580088212665 0.014625498894272 -0.113117012331095 0.211153306359615 0.146252133937293 0.000830949983678168 0.0324119934364944 1.56379727929259
-0.000687207062199546 -0.282287592027352 0.146646125658198 -0.247879598786926 1.08894484910573 0.106251624607305 0.135357001819194 0.0979140524655163 1.53186592383524
1.11798819888961 0.0707892255248041 -0.0861148455532062 0.0581918426513665 0.365144983166663 -0.069391052916733 0.0208860095059335 -0.0539137870093639 -0.125825101387688
0.352544942033752 -0.00495068300659025 0.300179890483037 0.0168615860615621 0.990054436970669 -0.0154787906940019 0.317830572431027 -0.037440155800757 1.39270269998773
1.48372786400303 0.00636047873859234 -0.0652113648279054 0.0980399353885893 1.05044369023528 0.0986510827703496 -0.105518488765309 0.155813916054021 0.486086364884744
1.19894229385988 -0.0287769616140703 0.171777426353115 -0.136596201836202 0.47749706615235 0.17075767293924 0.217993928164933 0.122255239719812 0.474327714777174
1.0817689157587 0.211869793360331 0.0436357841950583 0.154329378495564 0.487498309985535 0.137203787405187 0.089825206772301 0.206553312304745 -0.0662165787034919
0.656357321052874 -0.142562590424616 0.175093245559913 -0.211148415795102 0.0757804215952593 -0.0709087407030869 0.136641339792479 -0.128005304397758 0.580846745687719
1.75206369162189 -0.154254597816129 -0.162995214592114 -0.234789793320247 2.8071330775418 0.169505615125115 -0.0987763052157339 0.235246171264587 0.564704232049579
0.0858293489459623 0.0856249183709456 -0.104857698292671 0.133600498987757 -0.4866848823044 0.11929830698989 -0.172226517445804 0.186556995617749 0.857218064680869
0.351016986215682 0.0225373019433466 0.226735931908395 0.0808777857139689 1.43834303427979 0.232730416789238 0.27011193167236 0.13666878640921 1.21082311199174
0.449179333756204 0.00383373898885876 -0.096949534327891 -0.0396427727619492 -0.0360757952901945 0.024963737853563 -0.0903107915421292 -0.0457125127440256 0.322337276206361
0.351463561851573 0.0354156351442129 0.08181924056104 0.130268335748974 0.929288888798569 0.19967355411781 0.0514169584620917 0.216027611740733 2.35645579322151
0.563667426044258 -0.0234079940164373 0.093602391329593 0.0127696618202348 0.391149390263389 -0.137765732908106 0.0881168733059642 -0.144445323787116 -0.10661133282201
1.13122421065159 -0.23971914455423 0.223557344212505 -0.161572001343376 -0.339087574059178 0.0275142705061881 0.196926230215959 0.0685379677710669 0.0795824226058397
-0.152215577207582 -0.205215738417419 0.051904758301296 -0.144726810676487 1.00580813728907 -0.104589340050455 -0.0519488084162035 -0.0557280709767694 0.815982308094636
1.29635957819278 -0.114546952483264 0.123974722314879 -0.08818217257639 1.29887890468573 0.0271839252787334 0.0568614827777246 0.0262022505112481 0.6858719176951
0.650597029923232 -0.0652796904127588 0.111966214440018 -0.0833067785390521 0.451399015608412 -0.0573243227481122 0.0701182568613721 -0.077345663515766 0.786898201385702
-0.602810579393689 -0.0353701516924078 0.0974750956583628 -0.0624067957951786 -0.0193393489358204 0.019332184029833 0.0828135310572962 0.0296316579158415 0.305340800701438
0.221369845951409 0.139395562505833 0.0598936164780279 0.199786381464024 1.38657706939906 -0.240778655028745 0.131418946643747 -0.228391826644736 0.24721719068853
1.91158722258263 -0.262783683182234 0.081005952278417 -0.328480872781685 0.411285158990188 0.0905390020233311 0.143040705311798 0.104965682570136 0.609827998842099
0.708927187223291 0.00550918059834356 0.0900879135632546 0.010341629735657 0.130575745599011 -0.077929282728828 0.0681007473611009 -0.144778997255913 1.39275192291865
0.356917560998996 -0.149999594368034 0.073198714779994 -0.135744230912877 0.808288329980364 -0.0132206684013682 0.0624977245855482 0.017736755739223 0.568065687306279
-0.317575905253445 -0.287898206139957 -0.0252523800098157 -0.254105962480871 2.4510093930933 -0.101543792366702 -0.0570177388230985 0.117703663271 0.237925422465479
0.13085564233059 0.413395229497394 -0.222460550917379 0.487230893882741 1.14983229734114 -0.120373934295029 -0.181559450689122 -0.131505117053744 -0.563588041793504
1.62581495038767 0.119211083238988 -0.0792373223231898 0.0890099894788808 0.762336654813191 -0.00981874571830894 -0.0599897292332951 0.100569534918389 1.44235515016985
0.206991168034068 -0.0495809634374547 0.166350235799914 -0.154524964250881 0.806007198332458 0.34959527019518 0.118000261371615 0.311113705617386 2.424534930912
0.580299431651041 -0.12472140145778 0.0533827620559337 -0.0839902457595737 1.01355711393632 -0.446100342295649 0.0297136835773815 -0.595103843590582 0.776078688999319
0.28387330782203 -0.039480918874748 -0.169325414159261 0.0217151575560344 0.340475086878652 0.406967785806733 -0.192204050225324 0.303489994780631 1.1409863046356
0.201856855126793 0.285635658796812 -0.120200183445627 0.224038798484356 2.07639666330349 -0.154644848523005 -0.11741819520958 -0.0219131224469883 0.985574931539814
0.243967590026101 0.10780063450718 -0.199495108263107 0.246985549730705 1.48928055324406 0.0135808897346716 -0.205486398813669 -0.0818787018368618 2.77496767629595
-0.414608444558645 0.130547395582237 -0.17515579402284 0.1801456469195 0.528364366686461 -0.237420299456537 -0.307065303903567 -0.213356544921229 0.99964603431155
1.28119737994597 0.131193641942363 -0.1291072378295 0.11555703173967 0.579844404153066 0.120723587886286 -0.0917588852204351 0.139458193627509 0.807419971882874
1.02096011146029 -0.0626350823277011 -0.0433643767796607 -0.0321141338727481 0.187444994081882 -0.0545415507313575 -0.00896386525281761 -0.0328088228383336 -0.355101229098152
-0.422565627258838 0.0816896705377172 -0.213393071313352 0.122556638320885 -0.190218274383195 0.231106424651655 -0.280155429479983 0.146220939187314 0.213189208235829
0.277810442833788 0.0382520906397619 -0.125090626185785 -0.121213598136 0.467319884421334 0.107813114810878 -0.0950832670677002 0.129406790004504 1.25589120859915
-0.324148432808633 0.366168440309976 0.0597612264191086 0.354648477293259 1.18297101243181 -0.0891492692203422 0.130206974258105 -0.126689180445694 -0.635825021727486
-0.336330377451583 0.133565980476532 -0.0476725662237314 0.0897260818508557 -0.677944062575318 -0.130744517325746 -0.0917640936164189 -0.149039884851733 2.21575426016867
-0.237803811293684 -0.105243688414264 0.25052636471874 -0.12500793350014 0.281847027715893 0.0216010433621788 0.275619862781921 0.0132497792958688 -0.0912467512932742
-0.11843058495013 -0.102380925046524 -0.0182592662541028 -0.206117758281075 -1.10935461140829 0.0403903890065068 0.0831918170659946 0.082316409766674 0.010593009855462
-0.111814981355981 -0.20459118268845 -0.175325267719604 -0.186485148387892 -0.432799596923487 -0.0501609451995183 -0.286674970088686 -0.0649135660084937 1.20941200639293
0.119300556270393 -0.289659257156207 -0.109755545098582 -0.392559356398084 1.78175465169994 -0.372993840168105 -0.140369150590501 -0.292003218585852 -0.503775483801378
1.28665376550658 0.157678429333656 0.149165061738706 0.151556681934418 0.689415269835562 -0.115981194932818 0.146431191130545 -0.106241450231865 0.46062593354866
0.0498554010575321 -0.157096634999268 -0.0567970342308367 -0.127147078828765 0.00297489306830253 0.100779422153209 -0.147948361939147 0.140582881007783 -0.038847857904534
0.910393565636715 -0.351978945036163 -0.20371862472242 -0.211959200472247 -0.933794186780466 -0.0297976448117356 -0.244595922911702 0.0255483379415785 0.210004615936896
0.806189763058497 0.0382322242492554 0.106244058740646 0.0945245616174312 0.652028918982172 -0.108379267457022 0.188734295747386 -0.132004366716119 0.554960078666666
0.827936975041396 0.0781880585213492 0.038535635475307 0.0837599909656611 1.28188392451504 0.0693119730426517 0.140652820297497 0.0284250768924383 0.488964389403098
1.81895898985158 -0.0208806761827403 0.0628584667098812 -0.0668361166033855 -0.176632805587792 0.0146864364407874 0.0684253813475878 0.00911313952352369 -0.284893982571048
1.18694803728383 -0.465267527798883 -0.213777492748745 -0.350006634029453 -0.210184332652231 0.094208427486546 -0.227820373898556 0.0804656524341034 -0.47942143315086
1.06920036115754 0.111563022983712 0.0707100472783699 0.116626022791191 -0.0131826400354052 0.197471319990255 -0.0704118415723942 0.107157587477574 -0.095630890244267
1.13233405858185 -0.0385766041365683 -0.393975867807501 0.0136813167712531 0.233456209972301 0.0699713305499095 -0.322444954075438 0.138166204620511 2.71321027097784
0.1784521446714 0.259828377590336 0.144414953834216 0.27706357578278 0.61237575098299 -0.0487506906515353 0.122057921595149 -0.10817679754546 0.87573399049545
0.152023288828806 0.161656094205413 -0.0231585873339691 0.124136298062066 0.885680571021983 -0.0120613386288333 -0.05915425526527 0.0597179638947957 -0.110799123634366
0.0686577315611361 -0.197274673357282 0.0735378779077832 -0.157526853380709 0.515503282443516 0.0768485278531901 0.106236761381576 0.0520867138341505 0.681363971464362
0.447842901870092 -0.0368738019218803 0.155680986509621 -0.0737685598355878 0.126805857924268 0.0328835823640206 0.190734577337377 0.0604343321423161 0.697619478035482
0.538226913762349 0.117474402676416 -0.153026382292608 0.0468020535734511 0.468964836570134 0.176618758959061 -0.153525794050701 0.218784619330466 -0.0706547490660304
0.254727326146468 0.292806731411833 0.10388745845294 0.299600561795227 -0.696945341748604 -0.269712909082892 0.179116033735374 -0.28772359793283 1.49305553596813
0.440932349918771 0.320383284962996 -0.111049042611492 0.343098049298004 1.72449734125766 0.182258529211485 -0.126023806816651 0.198377365095692 0.0430612656154531
-0.685693366972121 0.0558912980932159 0.157136863264131 0.00257986740513102 0.606559170827882 0.0315354184416888 0.156338735364918 0.033034323409937 0.0290627965766277
0.264891347363326 0.121706106206903 -0.133875355099954 0.173432605340321 -0.536177665195244 -0.00605106256214758 -0.0871035668608153 0.0293276369450094 -0.547567086505839
-0.701763636043504 -0.163669866084471 -0.0374509860656816 -0.0341951709746489 -0.280754000368878 -0.0835978328090968 -0.0943856083190603 -0.078447190444839 -0.10514656991083
0.74639282069789 0.172841091054284 -0.0487769270964406 0.186527083149933 0.0682689138270651 -0.177401082846461 -0.0978889809156582 -0.157856416246057 -0.139966085911914
-0.141405363547107 0.0352747994009667 0.06790216451745 0.0661051873075322 0.668249390570306 0.0238951606619358 0.0479505225595301 0.000746030998390346 0.214945567772352
0.408290756187725 -0.138283377599133 0.385028909424372 -0.0825725278124357 1.34520322251654 -0.258946651095047 0.411478413723879 -0.241856203736048 0.0374701862657721
0.0575654223588146 0.00715673349232874 -0.060009722319069 0.0366984601811569 -0.756668129603394 -0.148961734132831 0.044306518616822 -0.19801703680043 -0.701053593141902
-1.12884881035451 0.16392362250411 -0.21688031114956 0.0707978437111195 1.01418746945239 -0.386117125270864 -0.117827237651576 -0.351614445286848 -0.603078247097271
-0.141192079525658 0.011408317864808 0.0399899876497207 -0.0164182966730482 0.597723063555127 -0.0844539445049681 0.0581619383988766 -0.115860877103215 0.616269751716231
-0.122937119340537 -0.281473886893082 0.231769759491247 -0.260458931373288 -0.497430705684216 -0.0394848656899062 0.194218540452528 -0.0679460468774896 0.233862844190667
1.38681049313713 0.0328871541936824 0.203248775273946 0.0614836472220253 -0.0834955535669799 -0.090355228216005 0.207312474793317 -0.115061757236526 0.871606698747305
-0.24658529049508 0.394414528695901 -0.246532617857377 0.314525553785659 -0.513343890974077 -0.0249569410873066 -0.231210724993816 -0.0260359232577486 0.335280403960949
1.32327295998109 0.056278247932782 -0.110879074594942 0.095074117443476 1.46395982114391 -0.252306688867367 -0.140171861415981 -0.273621255334497 -0.319217742233676
0.253151210311156 0.0474547791136325 0.103381594347048 -0.00487438142363349 -0.41589661995548 -0.200043696506144 0.051025640429902 -0.286977402699852 0.00150667529740061
0.681501811448337 0.0601019369536541 -0.0255073423740192 0.0214589884583729 0.976585765791906 -0.106654772171975 0.0952563026201509 -0.0118854557326642 -0.232523903798085
1.02338396513558 0.0193990625874493 -0.122697591082271 0.0773079256989368 0.530975758542282 0.389858901402293 -0.0752652659510086 0.398134005477661 -0.36209682632324
0.431156679066339 -0.0933744119372312 -0.08738481179347 -0.18066901663249 0.091064766831557 -0.00620824416750399 -0.0548527117830514 0.0495035790636937 -0.819707990601435
0.270407752930748 0.162279298875488 0.0552033804656308 0.128316633907423 0.564979552325558 0.199994196068183 0.0400870906179143 0.127476901993045 0.173439550988429
1.73757201330956 0.243843551546319 -0.117917394384928 0.267879388700082 -0.309700117479464 -0.00701706781266366 -0.0958048889555503 0.0564461560212061 -0.101652447295563
0.422445091901161 0.0344466679110418 -0.164402222685634 0.0134575894810063 -0.880743605617693 0.091446003771 -0.175588682572264 0.06280855889897 0.281715910646653
1.34323848666962 0.027375055469259 0.348498180934294 0.0224394999464141 0.202799844507448 0.204499388607154 0.387958809267086 0.130649037075615 1.52963315358894
0.723358572340032 -0.214872909259469 -0.109834857412922 -0.157959950389421 1.31956947262992 0.0831576843424892 -0.102425517710574 0.0874888061920991 -0.337060354369433
1.09624912730332 0.251037765894335 0.145520284939598 0.293798544480047 1.09125182840429 0.0620735031403165 0.196743126612124 0.0717744041442636 -0.131767010554499
0.757242258963135 0.0612867931866362 0.11287521962538 0.0361657960023469 -0.257709338797097 -0.0420501977200881 0.16295615321162 -0.0726368134682246 0.654477844210329
0.931876368740895 0.240974098296822 0.0723831805751172 0.169671858823407 0.139431332883146 -0.01436490266391 0.0446262235233481 -0.00807342224898039 0.765003217593981
-0.320948253670141 0.113956066128548 -0.101214953101249 0.0943470053673398 2.20436473997606 0.0865560497734338 -0.147072479120143 0.0830813668278518 -0.248468312946838
0.339199872973329 0.125314717609149 0.0587951204663221 0.0973647913313246 0.00780640536856329 0.0351880249855385 0.0992995532657618 -0.0567632601662587 -0.713241539320571
0.900953318555133 0.000154227067460631 -0.19937366107017 -0.0109320736038078 0.350643718913905 -0.160890436602049 -0.218702298727737 -0.106782459999421 0.292557196694063
-0.0844555970965132 0.15688372201896 -0.0425114396255322 0.125948504088197 -0.531119001348355 0.145950618074017 -0.0978401552028897 0.182817990981465 1.54526484576145
0.728600785676526 0.0816500260911952 -0.165739139195299 0.0554609722682641 0.353196844470438 0.00559386791597173 -0.0874228302864372 0.0489687650218786 -0.620854151234435
0.851923536148096 -0.0510522504697168 0.510208334766549 -0.0829201033069183 0.604766429303164 0.114714973167922 0.395225216903814 0.0564667317128546 0.470572519175697
-1.32833447610745 -0.0883795147224518 -0.129161014592879 -0.0989727728346001 1.02536321760625 0.0899961499195866 -0.127486217870027 0.119167822460256 -0.60652932091986
-0.0498513630176708 -0.132624334935087 0.102882537724086 -0.0531349240330882 -1.45681185876392 -0.185461634031613 0.127934549791101 -0.183806015761603 1.44618678651398
0.015477278399173 0.106950758370347 0.0524512940551748 0.153041541527909 0.0489361633632142 -0.247575252349887 0.00779968430134778 -0.193924203870037 0.21065572900813
0.297011446479455 -0.13193628721075 0.20926660903439 -0.243872930260347 0.045534265431276 0.195787317144488 0.229523999386808 0.102551398805189 0.124870978940692
-0.586712755680688 -0.267278085171764 -0.0628124041343344 -0.278774732189608 0.343693309557557 -0.0936173381121153 0.00237028632683832 -0.0850499052493324 -0.191362903844881
-0.184012304735231 -0.278588121616659 0.0903463685850727 -0.418049919677592 0.974155908641018 -0.0684637086879934 0.0259277944568265 -0.131565989209415 0.30997624929343
-0.624480132172889 -0.129653982238408 -0.0983658407625866 -0.103727326766489 -0.500279364413734 0.00149455499834082 -0.134262173647448 -0.00564678595115504 1.34525155152557
-0.290662376581486 0.0661420765551946 -0.102304506222807 0.139232378643742 0.457759733946304 -0.119614273795221 -0.0770274203568722 -0.0206601544077235 0.0304025281435365
-0.0313611676667038 -0.0399299988789748 -0.0633824248956779 -0.0514714455502946 0.898033621810831 -0.144332702897181 -0.145872369387677 -0.190216573526637 0.571617149216952
-0.739668265808002 -0.0606982719003902 0.0367350008366484 -0.107864954491029 0.35088455136761 0.015695725934781 -0.0612982663319025 0.0327340244087984 1.39675021521376
0.270748330442965 -0.0755905475780016 -0.178761394309161 -0.012734611790491 2.76380580368169 0.211616134333001 -0.0688083905043442 0.118607665142276 -0.158908398484291
1.54263001370249 0.000544487637042107 0.238008972159736 0.0342655752551183 0.266086937735303 -0.129022238591959 0.282842755632597 -0.154270953554261 2.33324624392199
0.0136196555712632 0.0451334383692667 0.0218275235539165 0.0666292112898485 0.823444875532339 -0.021842368795697 -0.0180269885078889 0.0328197495416357 0.902935271818757
0.498180081492846 -0.0143733071479327 -0.0379189237464807 0.115217140030327 0.630301211073956 0.0133033522025379 0.0354768306796645 -0.00351194340529394 0.911829681398815
0.354849429659573 0.0132294797396028 -0.144543839627957 -0.0522963247156021 0.236110244784737 0.0854743962821449 -0.0780198081152464 0.114243810354605 0.579113921156386
1.59785993021792 0.0473667945507112 0.0914858740927033 -0.0216375847715422 0.949071086831342 0.162879949248197 0.0220381947992635 0.0551835602804131 0.361730459637649
1.50625158331076 -0.1952482186893 -0.0825342574533061 -0.222435745680864 0.673513505927751 0.0887329887522774 -0.0328120041572746 0.180505190423448 0.719133228385276
0.000721874160465097 0.118223928765365 -0.0597129845005064 0.114230989473796 1.24534234150285 -0.0502009174233518 -0.03536682351365 -0.0146809949427579 0.12041938902147
1.40993495367657 -0.0473485225889555 0.0982316284260173 -0.0799734104916546 -0.788794386203634 0.118788861072291 -0.0117319951916617 0.110915387722666 2.06428819081532
1.2233946502265 0.105557768114901 -0.054795767237239 0.146961181682619 0.727810731752857 0.288946137031377 -0.0779133684444467 0.229856257233309 0.251870399194232
-0.195283172297315 -0.0335272606012328 -0.159430886879146 -0.100231072353436 0.079842914179298 -0.0265194318217487 -0.151710149444705 -0.0339732413773766 1.1370019983875
1.85984887613997 -0.0113799995983186 -0.100591585853726 -0.0415719347712774 0.356238743048926 0.244019482214569 -0.00600564868158178 0.218806765870756 -0.343961280466328
0.499111852723464 -0.118540865102735 0.220332814042367 -0.10712651610094 -0.300469787705892 0.163429239705426 0.237829618805737 0.195379686609547 1.40752753361303
0.30716761482735 0.113640791277089 -0.160310689384851 0.0791080951520036 1.80846490995185 -0.0260615255200056 -0.208830955714886 0.0373240957335781 -0.85845052259201
0.359624736596637 -0.174058900234778 0.0282644334251533 -0.133497248972293 1.31020562223774 0.0331056380504895 0.0459907384540056 0.0918501465076508 0.460395590864373
0.488611579523412 0.136236113206107 0.0869020867018132 0.0580762681447987 0.524570199838076 -0.149710158180241 0.0490088237715977 -0.197772567945906 0.160197851706423
0.834461957443144 -0.0786862816233533 0.18174818252506 -0.0402084308182467 -0.105400960757918 0.146614918039356 0.13967636287611 0.183171661949673 0.586103202973187
0.811791345414654 0.00809955526920011 -0.070070309623235 0.0326998228123607 -0.111373755906845 0.0427259323378172 -0.0953096469695383 0.0313008213500625 0.195114193028358
-0.0737143426724073 -0.082313853510067 0.263786175160342 0.00320217283849819 2.58406266759576 -0.254069662175971 0.335050579699964 -0.244921528268481 0.317743879750749
1.3135399202552 -0.32052082712334 0.235360705818531 -0.313851295363214 0.581560269147541 -0.0673136617418936 0.235269830404826 -0.0276564452320212 0.664877461318175
0.980050780135058 -0.149438350128818 0.0126618852648992 -0.107118719017912 -0.570901945689949 -0.106443692688387 0.0796054569447392 -0.204147316548863 -0.21177900910413
0.639241740000182 0.14916779824395 -0.141348875398615 0.0553806539757661 0.491480105751029 -0.142030487975547 -0.28861911266202 -0.139434120852476 0.487016446410726
1.8859609996788 -0.102309325947402 0.145766951314295 -0.0573699686436231 0.434359429163607 0.0753956324191965 0.132584380212929 0.108304905407857 0.849002627732724
0.705117160719615 -0.20999487771479 0.174939635037264 -0.194672003023863 0.913660990976955 -0.173525489235157 0.117842837858811 -0.185347913223918 -1.01932672182531
