nep 1 C
cutoff 6 4
n_max 15 8
l_max 4
ANN 30 0
  1.000000e+00
  1.000000e+00
  1.000000e+00
  1.000000e+00
  1.000000e+00
  1.000000e+00
  1.000000e+00
  1.000000e+00
  1.000000e+00
  1.000000e+00
  1.000000e+00
  1.000000e+00
  1.000000e+00
  1.000000e+00
  1.000000e+00
  1.000000e+00
  1.000000e+00
  1.000000e+00
  1.000000e+00
  1.000000e+00
  1.000000e+00
  1.000000e+00
  1.000000e+00
  1.000000e+00
  1.000000e+00
  1.000000e+00
  1.000000e+00
  1.000000e+00
  1.000000e+00
  1.000000e+00
  1.000000e+00
  1.000000e+00
  1.000000e+00
  1.000000e+00
  1.000000e+00
  1.000000e+00
  1.000000e+00
  1.000000e+00
  1.000000e+00
  1.000000e+00
  1.000000e+00
  1.000000e+00
  1.000000e+00
  1.000000e+00
  1.000000e+00
  1.000000e+00
  1.000000e+00
  1.000000e+00
  1.000000e+00
  1.000000e+00
  1.000000e+00
  1.000000e+00
  1.000000e+00
  1.000000e+00
  1.000000e+00
  1.000000e+00
  1.000000e+00
  1.000000e+00
  1.000000e+00
  1.000000e+00
  1.000000e+00
  1.000000e+00
  1.000000e+00
  1.000000e+00
  1.000000e+00
  1.000000e+00
  1.000000e+00
  1.000000e+00
  1.000000e+00
  1.000000e+00
  1.000000e+00
  1.000000e+00
  1.000000e+00
  1.000000e+00
  1.000000e+00
  1.000000e+00
  1.000000e+00
  1.000000e+00
  1.000000e+00
  1.000000e+00
  1.000000e+00
  1.000000e+00
  1.000000e+00
  1.000000e+00
  1.000000e+00
  1.000000e+00
  1.000000e+00
  1.000000e+00
  1.000000e+00
  1.000000e+00
  1.000000e+00
  1.000000e+00
  1.000000e+00
  1.000000e+00
  1.000000e+00
  1.000000e+00
  1.000000e+00
  1.000000e+00
  1.000000e+00
  1.000000e+00
  1.000000e+00
  1.000000e+00
  1.000000e+00
  1.000000e+00
  1.000000e+00
  1.000000e+00
  1.000000e+00
  1.000000e+00
  1.000000e+00
  1.000000e+00
  1.000000e+00
  1.000000e+00
  1.000000e+00
  1.000000e+00
  1.000000e+00
  1.000000e+00
  1.000000e+00
  1.000000e+00
  1.000000e+00
  1.000000e+00
  1.000000e+00
  1.000000e+00
  1.000000e+00
  1.000000e+00
  1.000000e+00
  1.000000e+00
  1.000000e+00
  1.000000e+00
  1.000000e+00
  1.000000e+00
  1.000000e+00
  1.000000e+00
  1.000000e+00
  1.000000e+00
  1.000000e+00
  1.000000e+00
  1.000000e+00
  1.000000e+00
  1.000000e+00
  1.000000e+00
  1.000000e+00
  1.000000e+00
  1.000000e+00
  1.000000e+00
  1.000000e+00
  1.000000e+00
  1.000000e+00
  1.000000e+00
  1.000000e+00
  1.000000e+00
  1.000000e+00
  1.000000e+00
  1.000000e+00
  1.000000e+00
  1.000000e+00
  1.000000e+00
  1.000000e+00
  1.000000e+00
  1.000000e+00
  1.000000e+00
  1.000000e+00
  1.000000e+00
  1.000000e+00
  1.000000e+00
  1.000000e+00
  1.000000e+00
  1.000000e+00
  1.000000e+00
  1.000000e+00
  1.000000e+00
  1.000000e+00
  1.000000e+00
  1.000000e+00
  1.000000e+00
  1.000000e+00
  1.000000e+00
  1.000000e+00
  1.000000e+00
  1.000000e+00
  1.000000e+00
  1.000000e+00
  1.000000e+00
  1.000000e+00
  1.000000e+00
  1.000000e+00
  1.000000e+00
  1.000000e+00
  1.000000e+00
  1.000000e+00
  1.000000e+00
  1.000000e+00
  1.000000e+00
  1.000000e+00
  1.000000e+00
  1.000000e+00
  1.000000e+00
  1.000000e+00
  1.000000e+00
  1.000000e+00
  1.000000e+00
  1.000000e+00
  1.000000e+00
  1.000000e+00
  1.000000e+00
  1.000000e+00
  1.000000e+00
  1.000000e+00
  1.000000e+00
  1.000000e+00
  1.000000e+00
  1.000000e+00
  1.000000e+00
  1.000000e+00
  1.000000e+00
  1.000000e+00
  1.000000e+00
  1.000000e+00
  1.000000e+00
  1.000000e+00
  1.000000e+00
  1.000000e+00
  1.000000e+00
  1.000000e+00
  1.000000e+00
  1.000000e+00
  1.000000e+00
  1.000000e+00
  1.000000e+00
  1.000000e+00
  1.000000e+00
  1.000000e+00
  1.000000e+00
  1.000000e+00
  1.000000e+00
  1.000000e+00
  1.000000e+00
  1.000000e+00
  1.000000e+00
  1.000000e+00
  1.000000e+00
  1.000000e+00
  1.000000e+00
  1.000000e+00
  1.000000e+00
  1.000000e+00
  1.000000e+00
  1.000000e+00
  1.000000e+00
  1.000000e+00
  1.000000e+00
  1.000000e+00
  1.000000e+00
  1.000000e+00
  1.000000e+00
  1.000000e+00
  1.000000e+00
  1.000000e+00
  1.000000e+00
  1.000000e+00
  1.000000e+00
  1.000000e+00
  1.000000e+00
  1.000000e+00
  1.000000e+00
  1.000000e+00
  1.000000e+00
  1.000000e+00
  1.000000e+00
  1.000000e+00
  1.000000e+00
  1.000000e+00
  1.000000e+00
  1.000000e+00
  1.000000e+00
  1.000000e+00
  1.000000e+00
  1.000000e+00
  1.000000e+00
  1.000000e+00
  1.000000e+00
  1.000000e+00
  1.000000e+00
  1.000000e+00
  1.000000e+00
  1.000000e+00
  1.000000e+00
  1.000000e+00
  1.000000e+00
  1.000000e+00
  1.000000e+00
  1.000000e+00
  1.000000e+00
  1.000000e+00
  1.000000e+00
  1.000000e+00
  1.000000e+00
  1.000000e+00
  1.000000e+00
  1.000000e+00
  1.000000e+00
  1.000000e+00
  1.000000e+00
  1.000000e+00
  1.000000e+00
  1.000000e+00
  1.000000e+00
  1.000000e+00
  1.000000e+00
  1.000000e+00
  1.000000e+00
  1.000000e+00
  1.000000e+00
  1.000000e+00
  1.000000e+00
  1.000000e+00
  1.000000e+00
  1.000000e+00
  1.000000e+00
  1.000000e+00
  1.000000e+00
  1.000000e+00
  1.000000e+00
  1.000000e+00
  1.000000e+00
  1.000000e+00
  1.000000e+00
  1.000000e+00
  1.000000e+00
  1.000000e+00
  1.000000e+00
  1.000000e+00
  1.000000e+00
  1.000000e+00
  1.000000e+00
  1.000000e+00
  1.000000e+00
  1.000000e+00
  1.000000e+00
  1.000000e+00
  1.000000e+00
  1.000000e+00
  1.000000e+00
  1.000000e+00
  1.000000e+00
  1.000000e+00
  1.000000e+00
  1.000000e+00
  1.000000e+00
  1.000000e+00
  1.000000e+00
  1.000000e+00
  1.000000e+00
  1.000000e+00
  1.000000e+00
  1.000000e+00
  1.000000e+00
  1.000000e+00
  1.000000e+00
  1.000000e+00
  1.000000e+00
  1.000000e+00
  1.000000e+00
  1.000000e+00
  1.000000e+00
  1.000000e+00
  1.000000e+00
  1.000000e+00
  1.000000e+00
  1.000000e+00
  1.000000e+00
  1.000000e+00
  1.000000e+00
  1.000000e+00
  1.000000e+00
  1.000000e+00
  1.000000e+00
  1.000000e+00
  1.000000e+00
  1.000000e+00
  1.000000e+00
  1.000000e+00
  1.000000e+00
  1.000000e+00
  1.000000e+00
  1.000000e+00
  1.000000e+00
  1.000000e+00
  1.000000e+00
  1.000000e+00
  1.000000e+00
  1.000000e+00
  1.000000e+00
  1.000000e+00
  1.000000e+00
  1.000000e+00
  1.000000e+00
  1.000000e+00
  1.000000e+00
  1.000000e+00
  1.000000e+00
  1.000000e+00
  1.000000e+00
  1.000000e+00
  1.000000e+00
  1.000000e+00
  1.000000e+00
  1.000000e+00
  1.000000e+00
  1.000000e+00
  1.000000e+00
  1.000000e+00
  1.000000e+00
  1.000000e+00
  1.000000e+00
  1.000000e+00
  1.000000e+00
  1.000000e+00
  1.000000e+00
  1.000000e+00
  1.000000e+00
  1.000000e+00
  1.000000e+00
  1.000000e+00
  1.000000e+00
  1.000000e+00
  1.000000e+00
  1.000000e+00
  1.000000e+00
  1.000000e+00
  1.000000e+00
  1.000000e+00
  1.000000e+00
  1.000000e+00
  1.000000e+00
  1.000000e+00
  1.000000e+00
  1.000000e+00
  1.000000e+00
  1.000000e+00
  1.000000e+00
  1.000000e+00
  1.000000e+00
  1.000000e+00
  1.000000e+00
  1.000000e+00
  1.000000e+00
  1.000000e+00
  1.000000e+00
  1.000000e+00
  1.000000e+00
  1.000000e+00
  1.000000e+00
  1.000000e+00
  1.000000e+00
  1.000000e+00
  1.000000e+00
  1.000000e+00
  1.000000e+00
  1.000000e+00
  1.000000e+00
  1.000000e+00
  1.000000e+00
  1.000000e+00
  1.000000e+00
  1.000000e+00
  1.000000e+00
  1.000000e+00
  1.000000e+00
  1.000000e+00
  1.000000e+00
  1.000000e+00
  1.000000e+00
  1.000000e+00
  1.000000e+00
  1.000000e+00
  1.000000e+00
  1.000000e+00
  1.000000e+00
  1.000000e+00
  1.000000e+00
  1.000000e+00
  1.000000e+00
  1.000000e+00
  1.000000e+00
  1.000000e+00
  1.000000e+00
  1.000000e+00
  1.000000e+00
  1.000000e+00
  1.000000e+00
  1.000000e+00
  1.000000e+00
  1.000000e+00
  1.000000e+00
  1.000000e+00
  1.000000e+00
  1.000000e+00
  1.000000e+00
  1.000000e+00
  1.000000e+00
  1.000000e+00
  1.000000e+00
  1.000000e+00
  1.000000e+00
  1.000000e+00
  1.000000e+00
  1.000000e+00
  1.000000e+00
  1.000000e+00
  1.000000e+00
  1.000000e+00
  1.000000e+00
  1.000000e+00
  1.000000e+00
  1.000000e+00
  1.000000e+00
  1.000000e+00
  1.000000e+00
  1.000000e+00
  1.000000e+00
  1.000000e+00
  1.000000e+00
  1.000000e+00
  1.000000e+00
  1.000000e+00
  1.000000e+00
  1.000000e+00
  1.000000e+00
  1.000000e+00
  1.000000e+00
  1.000000e+00
  1.000000e+00
  1.000000e+00
  1.000000e+00
  1.000000e+00
  1.000000e+00
  1.000000e+00
  1.000000e+00
  1.000000e+00
  1.000000e+00
  1.000000e+00
  1.000000e+00
  1.000000e+00
  1.000000e+00
  1.000000e+00
  1.000000e+00
  1.000000e+00
  1.000000e+00
  1.000000e+00
  1.000000e+00
  1.000000e+00
  1.000000e+00
  1.000000e+00
  1.000000e+00
  1.000000e+00
  1.000000e+00
  1.000000e+00
  1.000000e+00
  1.000000e+00
  1.000000e+00
  1.000000e+00
  1.000000e+00
  1.000000e+00
  1.000000e+00
  1.000000e+00
  1.000000e+00
  1.000000e+00
  1.000000e+00
  1.000000e+00
  1.000000e+00
  1.000000e+00
  1.000000e+00
  1.000000e+00
  1.000000e+00
  1.000000e+00
  1.000000e+00
  1.000000e+00
  1.000000e+00
  1.000000e+00
  1.000000e+00
  1.000000e+00
  1.000000e+00
  1.000000e+00
  1.000000e+00
  1.000000e+00
  1.000000e+00
  1.000000e+00
  1.000000e+00
  1.000000e+00
  1.000000e+00
  1.000000e+00
  1.000000e+00
  1.000000e+00
  1.000000e+00
  1.000000e+00
  1.000000e+00
  1.000000e+00
  1.000000e+00
  1.000000e+00
  1.000000e+00
  1.000000e+00
  1.000000e+00
  1.000000e+00
  1.000000e+00
  1.000000e+00
  1.000000e+00
  1.000000e+00
  1.000000e+00
  1.000000e+00
  1.000000e+00
  1.000000e+00
  1.000000e+00
  1.000000e+00
  1.000000e+00
  1.000000e+00
  1.000000e+00
  1.000000e+00
  1.000000e+00
  1.000000e+00
  1.000000e+00
  1.000000e+00
  1.000000e+00
  1.000000e+00
  1.000000e+00
  1.000000e+00
  1.000000e+00
  1.000000e+00
  1.000000e+00
  1.000000e+00
  1.000000e+00
  1.000000e+00
  1.000000e+00
  1.000000e+00
  1.000000e+00
  1.000000e+00
  1.000000e+00
  1.000000e+00
  1.000000e+00
  1.000000e+00
  1.000000e+00
  1.000000e+00
  1.000000e+00
  1.000000e+00
  1.000000e+00
  1.000000e+00
  1.000000e+00
  1.000000e+00
  1.000000e+00
  1.000000e+00
  1.000000e+00
  1.000000e+00
  1.000000e+00
  1.000000e+00
  1.000000e+00
  1.000000e+00
  1.000000e+00
  1.000000e+00
  1.000000e+00
  1.000000e+00
  1.000000e+00
  1.000000e+00
  1.000000e+00
  1.000000e+00
  1.000000e+00
  1.000000e+00
  1.000000e+00
  1.000000e+00
  1.000000e+00
  1.000000e+00
  1.000000e+00
  1.000000e+00
  1.000000e+00
  1.000000e+00
  1.000000e+00
  1.000000e+00
  1.000000e+00
  1.000000e+00
  1.000000e+00
  1.000000e+00
  1.000000e+00
  1.000000e+00
  1.000000e+00
  1.000000e+00
  1.000000e+00
  1.000000e+00
  1.000000e+00
  1.000000e+00
  1.000000e+00
  1.000000e+00
  1.000000e+00
  1.000000e+00
  1.000000e+00
  1.000000e+00
  1.000000e+00
  1.000000e+00
  1.000000e+00
  1.000000e+00
  1.000000e+00
  1.000000e+00
  1.000000e+00
  1.000000e+00
  1.000000e+00
  1.000000e+00
  1.000000e+00
  1.000000e+00
  1.000000e+00
  1.000000e+00
  1.000000e+00
  1.000000e+00
  1.000000e+00
  1.000000e+00
  1.000000e+00
  1.000000e+00
  1.000000e+00
  1.000000e+00
  1.000000e+00
  1.000000e+00
  1.000000e+00
  1.000000e+00
  1.000000e+00
  1.000000e+00
  1.000000e+00
  1.000000e+00
  1.000000e+00
  1.000000e+00
  1.000000e+00
  1.000000e+00
  1.000000e+00
  1.000000e+00
  1.000000e+00
  1.000000e+00
  1.000000e+00
  1.000000e+00
  1.000000e+00
  1.000000e+00
  1.000000e+00
  1.000000e+00
  1.000000e+00
  1.000000e+00
  1.000000e+00
  1.000000e+00
  1.000000e+00
  1.000000e+00
  1.000000e+00
  1.000000e+00
  1.000000e+00
  1.000000e+00
  1.000000e+00
  1.000000e+00
  1.000000e+00
  1.000000e+00
  1.000000e+00
  1.000000e+00
  1.000000e+00
  1.000000e+00
  1.000000e+00
  1.000000e+00
  1.000000e+00
  1.000000e+00
  1.000000e+00
  1.000000e+00
  1.000000e+00
  1.000000e+00
  1.000000e+00
  1.000000e+00
  1.000000e+00
  1.000000e+00
  1.000000e+00
  1.000000e+00
  1.000000e+00
  1.000000e+00
  1.000000e+00
  1.000000e+00
  1.000000e+00
  1.000000e+00
  1.000000e+00
  1.000000e+00
  1.000000e+00
  1.000000e+00
  1.000000e+00
  1.000000e+00
  1.000000e+00
  1.000000e+00
  1.000000e+00
  1.000000e+00
  1.000000e+00
  1.000000e+00
  1.000000e+00
  1.000000e+00
  1.000000e+00
  1.000000e+00
  1.000000e+00
  1.000000e+00
  1.000000e+00
  1.000000e+00
  1.000000e+00
  1.000000e+00
  1.000000e+00
  1.000000e+00
  1.000000e+00
  1.000000e+00
  1.000000e+00
  1.000000e+00
  1.000000e+00
  1.000000e+00
  1.000000e+00
  1.000000e+00
  1.000000e+00
  1.000000e+00
  1.000000e+00
  1.000000e+00
  1.000000e+00
  1.000000e+00
  1.000000e+00
  1.000000e+00
  1.000000e+00
  1.000000e+00
  1.000000e+00
  1.000000e+00
  1.000000e+00
  1.000000e+00
  1.000000e+00
  1.000000e+00
  1.000000e+00
  1.000000e+00
  1.000000e+00
  1.000000e+00
  1.000000e+00
  1.000000e+00
  1.000000e+00
  1.000000e+00
  1.000000e+00
  1.000000e+00
  1.000000e+00
  1.000000e+00
  1.000000e+00
  1.000000e+00
  1.000000e+00
  1.000000e+00
  1.000000e+00
  1.000000e+00
  1.000000e+00
  1.000000e+00
  1.000000e+00
  1.000000e+00
  1.000000e+00
  1.000000e+00
  1.000000e+00
  1.000000e+00
  1.000000e+00
  1.000000e+00
  1.000000e+00
  1.000000e+00
  1.000000e+00
  1.000000e+00
  1.000000e+00
  1.000000e+00
  1.000000e+00
  1.000000e+00
  1.000000e+00
  1.000000e+00
  1.000000e+00
  1.000000e+00
  1.000000e+00
  1.000000e+00
  1.000000e+00
  1.000000e+00
  1.000000e+00
  1.000000e+00
  1.000000e+00
  1.000000e+00
  1.000000e+00
  1.000000e+00
  1.000000e+00
  1.000000e+00
  1.000000e+00
  1.000000e+00
  1.000000e+00
  1.000000e+00
  1.000000e+00
  1.000000e+00
  1.000000e+00
  1.000000e+00
  1.000000e+00
  1.000000e+00
  1.000000e+00
  1.000000e+00
  1.000000e+00
  1.000000e+00
  1.000000e+00
  1.000000e+00
  1.000000e+00
  1.000000e+00
  1.000000e+00
  1.000000e+00
  1.000000e+00
  1.000000e+00
  1.000000e+00
  1.000000e+00
  1.000000e+00
  1.000000e+00
  1.000000e+00
  1.000000e+00
  1.000000e+00
  1.000000e+00
  1.000000e+00
  1.000000e+00
  1.000000e+00
  1.000000e+00
  1.000000e+00
  1.000000e+00
  1.000000e+00
  1.000000e+00
  1.000000e+00
  1.000000e+00
  1.000000e+00
  1.000000e+00
  1.000000e+00
  1.000000e+00
  1.000000e+00
  1.000000e+00
  1.000000e+00
  1.000000e+00
  1.000000e+00
  1.000000e+00
  1.000000e+00
  1.000000e+00
  1.000000e+00
  1.000000e+00
  1.000000e+00
  1.000000e+00
  1.000000e+00
  1.000000e+00
  1.000000e+00
  1.000000e+00
  1.000000e+00
  1.000000e+00
  1.000000e+00
  1.000000e+00
  1.000000e+00
  1.000000e+00
  1.000000e+00
  1.000000e+00
  1.000000e+00
  1.000000e+00
  1.000000e+00
  1.000000e+00
  1.000000e+00
  1.000000e+00
  1.000000e+00
  1.000000e+00
  1.000000e+00
  1.000000e+00
  1.000000e+00
  1.000000e+00
  1.000000e+00
  1.000000e+00
  1.000000e+00
  1.000000e+00
  1.000000e+00
  1.000000e+00
  1.000000e+00
  1.000000e+00
  1.000000e+00
  1.000000e+00
  1.000000e+00
  1.000000e+00
  1.000000e+00
  1.000000e+00
  1.000000e+00
  1.000000e+00
  1.000000e+00
  1.000000e+00
  1.000000e+00
  1.000000e+00
  1.000000e+00
  1.000000e+00
  1.000000e+00
  1.000000e+00
  1.000000e+00
  1.000000e+00
  1.000000e+00
  1.000000e+00
  1.000000e+00
  1.000000e+00
  1.000000e+00
  1.000000e+00
  1.000000e+00
  1.000000e+00
  1.000000e+00
  1.000000e+00
  1.000000e+00
  1.000000e+00
  1.000000e+00
  1.000000e+00
  1.000000e+00
  1.000000e+00
  1.000000e+00
  1.000000e+00
  1.000000e+00
  1.000000e+00
  1.000000e+00
  1.000000e+00
  1.000000e+00
  1.000000e+00
  1.000000e+00
  1.000000e+00
  1.000000e+00
  1.000000e+00
  1.000000e+00
  1.000000e+00
  1.000000e+00
  1.000000e+00
  1.000000e+00
  1.000000e+00
  1.000000e+00
  1.000000e+00
  1.000000e+00
  1.000000e+00
  1.000000e+00
  1.000000e+00
  1.000000e+00
  1.000000e+00
  1.000000e+00
  1.000000e+00
  1.000000e+00
  1.000000e+00
  1.000000e+00
  1.000000e+00
  1.000000e+00
  1.000000e+00
  1.000000e+00
  1.000000e+00
  1.000000e+00
  1.000000e+00
  1.000000e+00
  1.000000e+00
  1.000000e+00
  1.000000e+00
  1.000000e+00
  1.000000e+00
  1.000000e+00
  1.000000e+00
  1.000000e+00
  1.000000e+00
  1.000000e+00
  1.000000e+00
  1.000000e+00
  1.000000e+00
  1.000000e+00
  1.000000e+00
  1.000000e+00
  1.000000e+00
  1.000000e+00
  1.000000e+00
  1.000000e+00
  1.000000e+00
  1.000000e+00
  1.000000e+00
  1.000000e+00
  1.000000e+00
  1.000000e+00
  1.000000e+00
  1.000000e+00
  1.000000e+00
  1.000000e+00
  1.000000e+00
  1.000000e+00
  1.000000e+00
  1.000000e+00
  1.000000e+00
  1.000000e+00
  1.000000e+00
  1.000000e+00
  1.000000e+00
  1.000000e+00
  1.000000e+00
  1.000000e+00
  1.000000e+00
  1.000000e+00
  1.000000e+00
  1.000000e+00
  1.000000e+00
  1.000000e+00
  1.000000e+00
  1.000000e+00
  1.000000e+00
  1.000000e+00
  1.000000e+00
  1.000000e+00
  1.000000e+00
  1.000000e+00
  1.000000e+00
  1.000000e+00
  1.000000e+00
  1.000000e+00
  1.000000e+00
  1.000000e+00
  1.000000e+00
  1.000000e+00
  1.000000e+00
  1.000000e+00
  1.000000e+00
  1.000000e+00
  1.000000e+00
  1.000000e+00
  1.000000e+00
  1.000000e+00
  1.000000e+00
  1.000000e+00
  1.000000e+00
  1.000000e+00
  1.000000e+00
  1.000000e+00
  1.000000e+00
  1.000000e+00
  1.000000e+00
  1.000000e+00
  1.000000e+00
  1.000000e+00
  1.000000e+00
  1.000000e+00
  1.000000e+00
  1.000000e+00
  1.000000e+00
  1.000000e+00
  1.000000e+00
  1.000000e+00
  1.000000e+00
  1.000000e+00
  1.000000e+00
  1.000000e+00
  1.000000e+00
  1.000000e+00
  1.000000e+00
  1.000000e+00
  1.000000e+00
  1.000000e+00
  1.000000e+00
  1.000000e+00
  1.000000e+00
  1.000000e+00
  1.000000e+00
  1.000000e+00
  1.000000e+00
  1.000000e+00
  1.000000e+00
  1.000000e+00
  1.000000e+00
  1.000000e+00
  1.000000e+00
  1.000000e+00
  1.000000e+00
  1.000000e+00
  1.000000e+00
  1.000000e+00
  1.000000e+00
  1.000000e+00
  1.000000e+00
  1.000000e+00
  1.000000e+00
  1.000000e+00
  1.000000e+00
  1.000000e+00
  1.000000e+00
  1.000000e+00
  1.000000e+00
  1.000000e+00
  1.000000e+00
  1.000000e+00
  1.000000e+00
  1.000000e+00
  1.000000e+00
  1.000000e+00
  1.000000e+00
  1.000000e+00
  1.000000e+00
  1.000000e+00
  1.000000e+00
  1.000000e+00
  1.000000e+00
  1.000000e+00
  1.000000e+00
  1.000000e+00
  1.000000e+00
  1.000000e+00
  1.000000e+00
  1.000000e+00
  1.000000e+00
  1.000000e+00
  1.000000e+00
  1.000000e+00
  1.000000e+00
  1.000000e+00
  1.000000e+00
  1.000000e+00
  1.000000e+00
  1.000000e+00
  1.000000e+00
  1.000000e+00
  1.000000e+00
  1.000000e+00
  1.000000e+00
  1.000000e+00
  1.000000e+00
  1.000000e+00
  1.000000e+00
  1.000000e+00
  1.000000e+00
  1.000000e+00
  1.000000e+00
  1.000000e+00
  1.000000e+00
  1.000000e+00
  1.000000e+00
  1.000000e+00
  1.000000e+00
  1.000000e+00
  1.000000e+00
  1.000000e+00
  1.000000e+00
  1.000000e+00
  1.000000e+00
  1.000000e+00
  1.000000e+00
  1.000000e+00
  1.000000e+00
  1.000000e+00
  1.000000e+00
  1.000000e+00
  1.000000e+00
  1.000000e+00
  1.000000e+00
  1.000000e+00
  1.000000e+00
  1.000000e+00
  1.000000e+00
  1.000000e+00
  1.000000e+00
  1.000000e+00
  1.000000e+00
  1.000000e+00
  1.000000e+00
  1.000000e+00
  1.000000e+00
  1.000000e+00
  1.000000e+00
  1.000000e+00
  1.000000e+00
  1.000000e+00
  1.000000e+00
  1.000000e+00
  1.000000e+00
  1.000000e+00
  1.000000e+00
  1.000000e+00
  1.000000e+00
  1.000000e+00
  1.000000e+00
  1.000000e+00
  1.000000e+00
  1.000000e+00
  1.000000e+00
  1.000000e+00
  1.000000e+00
  1.000000e+00
  1.000000e+00
  1.000000e+00
  1.000000e+00
  1.000000e+00
  1.000000e+00
  1.000000e+00
  1.000000e+00
  1.000000e+00
  1.000000e+00
  1.000000e+00
  1.000000e+00
  1.000000e+00
  1.000000e+00
  1.000000e+00
  1.000000e+00
  1.000000e+00
  1.000000e+00
  1.000000e+00
  1.000000e+00
  1.000000e+00
  1.000000e+00
  1.000000e+00
  1.000000e+00
  1.000000e+00
  1.000000e+00
  1.000000e+00
  1.000000e+00
  1.000000e+00
  1.000000e+00
  1.000000e+00
  1.000000e+00
  1.000000e+00
  1.000000e+00
  1.000000e+00
  1.000000e+00
  1.000000e+00
  1.000000e+00
  1.000000e+00
  1.000000e+00
  1.000000e+00
  1.000000e+00
  1.000000e+00
  1.000000e+00
  1.000000e+00
  1.000000e+00
  1.000000e+00
  1.000000e+00
  1.000000e+00
  1.000000e+00
  1.000000e+00
  1.000000e+00
  1.000000e+00
  1.000000e+00
  1.000000e+00
  1.000000e+00
  1.000000e+00
  1.000000e+00
  1.000000e+00
  1.000000e+00
  1.000000e+00
  1.000000e+00
  1.000000e+00
  1.000000e+00
  1.000000e+00
  1.000000e+00
  1.000000e+00
  1.000000e+00
  1.000000e+00
  1.000000e+00
  1.000000e+00
  1.000000e+00
  1.000000e+00
  1.000000e+00
  1.000000e+00
  1.000000e+00
  1.000000e+00
  1.000000e+00
  1.000000e+00
  1.000000e+00
  1.000000e+00
  1.000000e+00
  1.000000e+00
  1.000000e+00
  1.000000e+00
  1.000000e+00
  1.000000e+00
  1.000000e+00
  1.000000e+00
  1.000000e+00
  1.000000e+00
  1.000000e+00
  1.000000e+00
  1.000000e+00
  1.000000e+00
  1.000000e+00
  1.000000e+00
  1.000000e+00
  1.000000e+00
  1.000000e+00
  1.000000e+00
  1.000000e+00
  1.000000e+00
  1.000000e+00
  1.000000e+00
  1.000000e+00
  1.000000e+00
  1.000000e+00
  1.000000e+00
  1.000000e+00
  1.000000e+00
  1.000000e+00
  1.000000e+00
  1.000000e+00
  1.000000e+00
  1.000000e+00
  1.000000e+00
  1.000000e+00
  1.000000e+00
  1.000000e+00
  1.000000e+00
  1.000000e+00
  1.000000e+00
  1.000000e+00
  1.000000e+00
  1.000000e+00
  1.000000e+00
  1.000000e+00
  1.000000e+00
  1.000000e+00
  1.000000e+00
  1.000000e+00
  1.000000e+00
  1.000000e+00
  1.000000e+00
  1.000000e+00
  1.000000e+00
  1.000000e+00
  1.000000e+00
  1.000000e+00
  1.000000e+00
  1.000000e+00
  1.000000e+00
  1.000000e+00
  1.000000e+00
  1.000000e+00
  1.000000e+00
  1.000000e+00
  1.000000e+00
  1.000000e+00
  1.000000e+00
  1.000000e+00
  1.000000e+00
  1.000000e+00
  1.000000e+00
  1.000000e+00
  1.000000e+00
  1.000000e+00
  1.000000e+00
  1.000000e+00
  1.000000e+00
  1.000000e+00
  1.000000e+00
  1.000000e+00
  1.000000e+00
  1.000000e+00
  1.000000e+00
  1.000000e+00
  1.000000e+00
  1.000000e+00
  1.000000e+00
  1.000000e+00
  1.000000e+00
  1.000000e+00
  1.000000e+00
  1.000000e+00
  1.000000e+00
  1.000000e+00
  1.000000e+00
  1.000000e+00
  1.000000e+00
  1.000000e+00
  1.000000e+00
  1.000000e+00
  1.000000e+00
  1.000000e+00
  1.000000e+00
  1.000000e+00
  1.000000e+00
  1.000000e+00
  1.000000e+00
  1.000000e+00
  1.000000e+00
  1.000000e+00
  1.000000e+00
  1.000000e+00
  1.000000e+00
  1.000000e+00
  1.000000e+00
  1.000000e+00
  1.000000e+00
  1.000000e+00
  1.000000e+00
  1.000000e+00
  1.000000e+00
  1.000000e+00
  1.000000e+00
  1.000000e+00
  1.000000e+00
  1.000000e+00
  1.000000e+00
  1.000000e+00
  1.000000e+00
  1.000000e+00
  1.000000e+00
  1.000000e+00
  1.000000e+00
  1.000000e+00
  1.000000e+00
  1.000000e+00
  1.000000e+00
  1.000000e+00
  1.000000e+00
  1.000000e+00
  1.000000e+00
  1.000000e+00
  1.000000e+00
  1.000000e+00
  1.000000e+00
  1.000000e+00
  1.000000e+00
  1.000000e+00
  1.000000e+00
  1.000000e+00
  1.000000e+00
  1.000000e+00
  1.000000e+00
  1.000000e+00
  1.000000e+00
  1.000000e+00
  1.000000e+00
  1.000000e+00
  1.000000e+00
  1.000000e+00
  1.000000e+00
  1.000000e+00
  1.000000e+00
  1.000000e+00
  1.000000e+00
  1.000000e+00
  1.000000e+00
  1.000000e+00
  1.000000e+00
  1.000000e+00
  1.000000e+00
  1.000000e+00
  1.000000e+00
  1.000000e+00
  1.000000e+00
  1.000000e+00
  1.000000e+00
  1.000000e+00
  1.000000e+00
  1.000000e+00
  1.000000e+00
  1.000000e+00
  1.000000e+00
  1.000000e+00
  1.000000e+00
  1.000000e+00
  1.000000e+00
  1.000000e+00
  1.000000e+00
  1.000000e+00
  1.000000e+00
  1.000000e+00
  1.000000e+00
  1.000000e+00
  1.000000e+00
  1.000000e+00
  1.000000e+00
  1.000000e+00
  1.000000e+00
  1.000000e+00
  1.000000e+00
  1.000000e+00
  1.000000e+00
  1.000000e+00
  1.000000e+00
  1.000000e+00
  1.000000e+00
  1.000000e+00
  1.000000e+00
  1.000000e+00
  1.000000e+00
  1.000000e+00
  1.000000e+00
  1.000000e+00
  1.000000e+00
  1.000000e+00
  1.000000e+00
  1.000000e+00
  1.000000e+00
  1.000000e+00
  1.000000e+00
  1.000000e+00
  1.000000e+00
  1.000000e+00
  1.000000e+00
  1.000000e+00
  1.000000e+00
  1.000000e+00
  1.000000e+00
  1.000000e+00
  1.000000e+00
  1.000000e+00
  1.000000e+00
  1.000000e+00
  1.000000e+00
  1.000000e+00
  1.000000e+00
  1.000000e+00
  1.000000e+00
  1.000000e+00
  1.000000e+00
  1.000000e+00
  1.000000e+00
  1.000000e+00
  1.000000e+00
  1.000000e+00
  1.000000e+00
  1.000000e+00
  1.000000e+00
  1.000000e+00
  1.000000e+00
  1.000000e+00
  1.000000e+00
  1.000000e+00
  1.000000e+00
  1.000000e+00
  1.000000e+00
  1.000000e+00
  1.000000e+00
  1.000000e+00
  1.000000e+00
  1.000000e+00
  1.000000e+00
  1.000000e+00
  1.000000e+00
  1.000000e+00
  1.000000e+00
  1.000000e+00
  1.000000e+00
  1.000000e+00
  1.000000e+00
  1.000000e+00
  1.000000e+00
  1.000000e+00
  1.000000e+00
  1.000000e+00
  1.000000e+00
  1.000000e+00
  1.000000e+00
  1.000000e+00
  1.000000e+00
  1.000000e+00
  1.000000e+00
  1.000000e+00
  1.000000e+00
  1.000000e+00
  1.000000e+00
  1.000000e+00
  1.000000e+00
  1.000000e+00
  1.000000e+00
  1.000000e+00
  1.000000e+00
  1.000000e+00
  1.000000e+00
  1.000000e+00
  1.000000e+00
  1.000000e+00
  1.000000e+00
  1.000000e+00
  1.000000e+00
  1.000000e+00
  1.000000e+00
  1.000000e+00
  1.000000e+00
  1.000000e+00
  1.000000e+00
  1.000000e+00
  1.000000e+00
  1.000000e+00
  1.000000e+00
  1.000000e+00
  1.000000e+00
  1.000000e+00
  1.000000e+00
  1.000000e+00
  1.000000e+00
  1.000000e+00
  1.000000e+00
  1.000000e+00
  1.000000e+00
  1.000000e+00
  1.000000e+00
  1.000000e+00
  1.000000e+00
  1.000000e+00
  1.000000e+00
  1.000000e+00
  1.000000e+00
  1.000000e+00
  1.000000e+00
  1.000000e+00
  1.000000e+00
  1.000000e+00
  1.000000e+00
  1.000000e+00
  1.000000e+00
  1.000000e+00
  1.000000e+00
  1.000000e+00
  1.000000e+00
  1.000000e+00
  1.000000e+00
  1.000000e+00
  1.000000e+00
  1.000000e+00
  1.000000e+00
  1.000000e+00
  1.000000e+00
  1.000000e+00
  1.000000e+00
  1.000000e+00
  1.000000e+00
  1.000000e+00
  1.000000e+00
  1.000000e+00
  1.000000e+00
  1.000000e+00
  1.000000e+00
  1.000000e+00
  1.000000e+00
  1.000000e+00
  1.000000e+00
  1.000000e+00
  1.000000e+00
  1.000000e+00
  1.000000e+00
  1.000000e+00
  1.000000e+00
  1.000000e+00
  1.000000e+00
  1.000000e+00
  1.000000e+00
  1.000000e+00
  1.000000e+00
  1.000000e+00
  1.000000e+00
  1.000000e+00
  1.000000e+00
  1.000000e+00
  1.000000e+00
  1.000000e+00
  1.000000e+00
  1.000000e+00
  1.000000e+00
  1.000000e+00
  1.000000e+00
  1.000000e+00
  1.000000e+00
  1.000000e+00
  1.000000e+00
  1.000000e+00
  1.000000e+00
  1.000000e+00
  1.000000e+00
  1.000000e+00
  1.000000e+00
  1.000000e+00
  1.000000e+00
  1.000000e+00
  1.000000e+00
  1.000000e+00
  1.000000e+00
  1.000000e+00
  1.000000e+00
  1.000000e+00
  1.000000e+00
  1.000000e+00
  1.000000e+00
  1.000000e+00
  1.000000e+00
  1.000000e+00
  1.000000e+00
  1.000000e+00
  1.000000e+00
  1.000000e+00
  1.000000e+00
  1.000000e+00
  1.000000e+00
  1.000000e+00
  1.000000e+00
  1.000000e+00
  1.000000e+00
  1.000000e+00
